Benchmark R6 class — Benchmark • prolfquabenchmark
…
medpol_benchmark$get_confusion_benchmark()
#> # A tibble: 97,398 × 19
#>    protein_Id       scorecol TP    what     F_    T_     R   FDP TP_hits FN_hits
#>    <chr>               <dbl> <lgl> <chr> <int> <int> <int> <dbl>   <int>   <int>
#>  1 sp|P0AB61|YCIN_…     2.94 TRUE  esti… 13840  2393     1 0           1    2392
#>  2 sp|P13024|FDHE_…     2.30 TRUE  esti… 13840  2393     2 0           2    2391
#>  3 sp|P0ADG4|SUHB_…     2.10 TRUE  esti… 13840  2393     3 0           3    2390
#>  4 sp|Q15714|T22D1…     1.87 FALSE esti… 13840  2393     4 0.25        3    2390
#>  5 sp|P16456|SELD_…     1.70 TRUE  esti… 13840  2393     5 0.2         4    2389
#>  6 sp|Q9UBP9|GULP1…     1.63 FALSE esti… 13840  2393     6 0.333       4    2389
#>  7 sp|P76116|YNCE_…     1.60 TRUE  esti… 13840  2393     7 0.286       5    2388
#>  8 sp|P42641|OBG_E…     1.51 TRUE  esti… 13840  2393     8 0.25        6    2387
#>  9 sp|P32157|YIIM_…     1.50 TRUE  esti… 13840  2393     9 0.222       7    2386
#> 10 sp|O94763|RMP_H…     1.45 FALSE esti… 13840  2393    10 0.3         7    2386
#> # ℹ 97,388 more rows
#> # ℹ 9 more variables: FP_hits <int>, TN_hits <int>, PREC <dbl>, FPR <dbl>,
#> #   TPR <dbl>, ACC <dbl>, FDP_ <dbl>, model_name <chr>, contrast <chr>
…
benchmark$complete(FALSE)
benchmark$missing_contrasts()
#> $summary
#> # A tibble: 4 × 2
#>   nr_missing protein_Id
#>        <int>      <int>
#> 1          0       4024
#> 2          1          8
#> 3          2         51
#> 4          3         11
#> 
#> $nr_na
#> # A tibble: 4,094 × 3
#>    protein_Id                                   n nr_na
#>    <chr>                                    <int> <int>
#>  1 sp|A0A0U1RRL7|MMPOS_HUMAN~123~A0A0U1RRL7     4     2
#>  2 sp|A0AVT1|UBA6_HUMAN~124~A0AVT1              4     0
#>  3 sp|A0FGR8|ESYT2_HUMAN~125~A0FGR8             4     0
#>  4 sp|A0MZ66|SHOT1_HUMAN~126~A0MZ66             4     0
#>  5 sp|A1L0T0|ILVBL_HUMAN~127~A1L0T0             4     0
#>  6 sp|A1X283|SPD2B_HUMAN~128~A1X283             4     0
#>  7 sp|A2RRP1|NBAS_HUMAN~129~A2RRP1              4     0
#>  8 sp|A3KN83|SBNO1_HUMAN~130~A3KN83             4     0
#>  9 sp|A4D1E9|GTPBA_HUMAN~131~A4D1E9             4     0
#> 10 sp|A5PLL7|TM189_HUMAN~132~A5PLL7             4     0
#> # ℹ 4,084 more rows
…
