Benchmarking MSFragger output using Ionstar Dataset • prolfquabenchmark
…
Summarize data

lfqdataNormalized$summarize_hierarchy()

## # A tibble: 3,934 × 2
##    protein_Id                n
##    <chr>                 <int>
##  1 sp|A0AVT1|UBA6_HUMAN      1
##  2 sp|A0FGR8|ESYT2_HUMAN     1
##  3 sp|A0MZ66|SHOT1_HUMAN     1
##  4 sp|A1L0T0|ILVBL_HUMAN     1
##  5 sp|A1X283|SPD2B_HUMAN     1
##  6 sp|A2RRP1|NBAS_HUMAN      1
##  7 sp|A2RTX5|SYTC2_HUMAN     1
##  8 sp|A3KN83|SBNO1_HUMAN     1
##  9 sp|A4D1E9|GTPBA_HUMAN     1
## 10 sp|A5PLL7|TM189_HUMAN     1
## # … with 3,924 more rows

summariz <- lfqdataNormalized$get_Summariser()
summariz$interaction_missing_stats()

## $data
## # A tibble: 19,670 × 8
##    dilution. protein_Id      isotopeLabel nrReplicates nrNAs meanArea medianArea
##    <chr>     <chr>           <chr>               <int> <int>    <dbl>      <dbl>
##  1 a         sp|A0AVT1|UBA6… light                   4     0     25.7       25.7
##  2 a         sp|A0FGR8|ESYT… light                   4     0     27.4       27.4
##  3 a         sp|A0MZ66|SHOT… light                   4     0     26.4       26.4
##  4 a         sp|A1L0T0|ILVB… light                   4     1     24.7       24.8
##  5 a         sp|A1X283|SPD2… light                   4     4    NaN         NA  
##  6 a         sp|A2RRP1|NBAS… light                   4     2     22.8       22.8
##  7 a         sp|A2RTX5|SYTC… light                   4     0     27.0       27.0
##  8 a         sp|A3KN83|SBNO… light                   4     2     23.3       23.3
##  9 a         sp|A4D1E9|GTPB… light                   4     0     24.9       24.9
## 10 a         sp|A5PLL7|TM18… light                   4     4    NaN         NA  
## # … with 19,660 more rows, and 1 more variable: nrMeasured <int>
## 
## $summaries
## [1] "nrReplicates" "nrNAs"        "nrMeasured"   "meanArea"     "medianArea"
…
