Benchmarking robust linear model using the Ionstar Dataset • prolfquabenchmark
…
sigma.rlm <- function(object, ...) {
  sqrt(sqrt(sum(object$w * object$resid^2) / (sum(object$w) - object$rank)))
}

rlmmodel <- "~ dilution."
rlmmodel <- paste0(lfqNormSubset$config$table$get_response() , rlmmodel)
lfqNormSubset$config$table$hierarchyDepth <- 1

modelFunction <- prolfqua::strategy_rlm( rlmmodel, model_name = "Model")

mod_rlm_ProtLevel <- prolfqua::build_model(lfqNormSubset$data, modelFunction)
mod_rlm_ProtLevel$get_anova()

## # A tibble: 4,639 × 10
##    protein_Id  isSin…¹ nrcoef factor    Df Sum.Sq Mean.Sq F.value Pr..F. FDR.P…²
##    <chr>       <lgl>    <int> <chr>  <dbl>  <dbl>   <dbl>   <dbl>  <dbl>   <dbl>
##  1 sp|A0AVT1|… FALSE        5 dilut…     4 0.533   0.133   0.414   0.798    1.00
##  2 sp|A0FGR8|… FALSE        5 dilut…     4 0.0711  0.0178  0.0213  0.999    1.00
##  3 sp|A0MZ66|… FALSE        5 dilut…     4 0.581   0.145   0.224   0.925    1.00
##  4 sp|A1L0T0|… FALSE        5 dilut…     4 0.386   0.0965  0.246   0.910    1.00
##  5 sp|A1X283|… FALSE        5 dilut…     4 0.410   0.102   0.522   0.720    1.00
##  6 sp|A2RRP1|… FALSE        5 dilut…     4 0.118   0.0296  0.314   0.867    1.00
##  7 sp|A3KN83|… FALSE        5 dilut…     4 1.27    0.317   0.791   0.539    1.00
##  8 sp|A4D1E9|… FALSE        5 dilut…     4 0.825   0.206   0.693   0.599    1.00
##  9 sp|A5PLL7|… FALSE        5 dilut…     4 0.834   0.208   0.115   0.976    1.00
## 10 sp|A5YKK6|… FALSE        5 dilut…     4 0.774   0.194   0.244   0.913    1.00
## # … with 4,629 more rows, and abbreviated variable names ¹​isSingular,
## #   ²​FDR.Pr..F.
…
