Benchmarking normalization, aggregation and models using the Ionstar Dataset • prolfquabenchmark
…
allContrasts <- list()
allContrasts$imputation <- contrImp$get_contrasts()
ttd <- prolfqua::ionstar_bench_preprocess(contrImp$get_contrasts())

benchmark_imputation <- prolfqua::make_benchmark(
    ttd$data,
    model_description = "med. polish and lm. imputation",
    model_name = "prot_imputation",
    FDRvsFDP = list(list(score = "FDR", desc = FALSE))
)
benchmark_imputation$get_confusion_FDRvsFDP()

## # A tibble: 33,280 × 17
##     scorecol TP    what     F_    T_     R   FDP TP_hits FN_hits FP_hits TN_hits
##        <dbl> <lgl> <chr> <int> <int> <int> <dbl>   <int>   <int>   <int>   <int>
##  1   1.00e-9 TRUE  FDR   14076  2564     1     0       1    2563       0   14076
##  2   6.54e-9 TRUE  FDR   14076  2564     2     0       2    2562       0   14076
##  3   6.54e-9 TRUE  FDR   14076  2564     3     0       3    2561       0   14076
##  4   1.52e-8 TRUE  FDR   14076  2564     4     0       4    2560       0   14076
##  5   1.56e-8 TRUE  FDR   14076  2564     5     0       5    2559       0   14076
##  6   1.56e-8 TRUE  FDR   14076  2564     6     0       6    2558       0   14076
##  7   1.56e-8 TRUE  FDR   14076  2564     7     0       7    2557       0   14076
##  8   1.56e-8 TRUE  FDR   14076  2564     8     0       8    2556       0   14076
##  9   1.56e-8 TRUE  FDR   14076  2564     9     0       9    2555       0   14076
## 10   1.56e-8 TRUE  FDR   14076  2564    10     0      10    2554       0   14076
## # … with 33,270 more rows, and 6 more variables: FPR <dbl>, TPR <dbl>,
## #   ACC <dbl>, FDP_ <dbl>, model_name <chr>, contrast <chr>
…
allContrasts$contrProtMixedModerated <- contrProtMixedModerated$get_contrasts()

ttd <- prolfqua::ionstar_bench_preprocess(contrROPECA$get_contrasts())
ttd$data

## # A tibble: 16,692 × 14
##    modelName protein_Id    contrast     n    diff statistic group_1_name group_1
##    <chr>     <chr>         <chr>    <int>   <dbl>     <dbl> <chr>          <dbl>
##  1 ROPECA    sp|A0A0U1RRL… dilutio…     2 NA        NA      dilution.b    NA    
##  2 ROPECA    sp|A0A0U1RRL… dilutio…     2 NA        NA      dilution.c    -1.82 
##  3 ROPECA    sp|A0A0U1RRL… dilutio…     2 NA        NA      dilution.d    -1.63 
##  4 ROPECA    sp|A0A0U1RRL… dilutio…     2 NA        NA      dilution.e    -1.67 
##  5 ROPECA    sp|A0AVT1|UB… dilutio…    11 -0.0131   -0.0211 dilution.b    -1.23 
##  6 ROPECA    sp|A0AVT1|UB… dilutio…    11  0.0207    0.0968 dilution.c    -1.18 
##  7 ROPECA    sp|A0AVT1|UB… dilutio…    11 -0.110    -0.424  dilution.d    -1.33 
##  8 ROPECA    sp|A0AVT1|UB… dilutio…    11  0.0143    0.0694 dilution.e    -1.30 
##  9 ROPECA    sp|A0FGR8|ES… dilutio…    16  0.0158    0.110  dilution.b    -0.381
## 10 ROPECA    sp|A0FGR8|ES… dilutio…    16 -0.126    -0.668  dilution.c    -0.328
## # … with 16,682 more rows, and 6 more variables: group_2_name <chr>,
## #   group_2 <dbl>, beta.based.significance <dbl>,
## #   FDR.beta.based.significance <dbl>, species <chr>, TP <lgl>
…
